{
  "dependencies": {
    "node-craigslist": {
      "version": "0.1.9",
      "dependencies": {
        "cheerio": {
          "version": "0.17.0",
          "dependencies": {
            "CSSselect": {
              "version": "0.4.1",
              "dependencies": {
                "CSSwhat": {
                  "version": "0.4.7"
                },
                "domutils": {
                  "version": "1.4.3",
                  "dependencies": {
                    "domelementtype": {
                      "version": "1.3.0"
                    }
                  }
                }
              }
            },
            "entities": {
              "version": "1.1.1"
            },
            "htmlparser2": {
              "version": "3.7.3",
              "dependencies": {
                "domhandler": {
                  "version": "2.2.1"
                },
                "domutils": {
                  "version": "1.5.1"
                },
                "domelementtype": {
                  "version": "1.3.0"
                },
                "readable-stream": {
                  "version": "1.1.13",
                  "dependencies": {
                    "core-util-is": {
                      "version": "1.0.1"
                    },
                    "isarray": {
                      "version": "0.0.1"
                    },
                    "string_decoder": {
                      "version": "0.10.31"
                    },
                    "inherits": {
                      "version": "2.0.1"
                    }
                  }
                },
                "entities": {
                  "version": "1.0.0"
                }
              }
            },
            "dom-serializer": {
              "version": "0.0.1",
              "dependencies": {
                "domelementtype": {
                  "version": "1.1.3"
                }
              }
            },
            "lodash": {
              "version": "2.4.2"
            }
          }
        }
      }
    },
    "nodemailer": {
      "version": "1.3.4",
      "dependencies": {
        "buildmail": {
          "version": "1.2.4",
          "dependencies": {
            "addressparser": {
              "version": "0.3.2"
            },
            "libbase64": {
              "version": "0.1.0"
            },
            "libqp": {
              "version": "1.0.0"
            }
          }
        },
        "hyperquest": {
          "version": "1.2.0",
          "dependencies": {
            "duplexer2": {
              "version": "0.0.2",
              "dependencies": {
                "readable-stream": {
                  "version": "1.1.13",
                  "dependencies": {
                    "core-util-is": {
                      "version": "1.0.1"
                    },
                    "isarray": {
                      "version": "0.0.1"
                    },
                    "string_decoder": {
                      "version": "0.10.31"
                    },
                    "inherits": {
                      "version": "2.0.1"
                    }
                  }
                }
              }
            },
            "through2": {
              "version": "0.6.5",
              "dependencies": {
                "readable-stream": {
                  "version": "1.0.33",
                  "dependencies": {
                    "core-util-is": {
                      "version": "1.0.1"
                    },
                    "isarray": {
                      "version": "0.0.1"
                    },
                    "string_decoder": {
                      "version": "0.10.31"
                    },
                    "inherits": {
                      "version": "2.0.1"
                    }
                  }
                },
                "xtend": {
                  "version": "4.0.0"
                }
              }
            }
          }
        },
        "libmime": {
          "version": "1.0.0",
          "dependencies": {
            "iconv-lite": {
              "version": "0.4.8"
            },
            "libbase64": {
              "version": "0.1.0"
            },
            "libqp": {
              "version": "1.0.0"
            }
          }
        },
        "nodemailer-direct-transport": {
          "version": "1.0.2",
          "dependencies": {
            "smtp-connection": {
              "version": "1.2.0"
            }
          }
        }
      }
    },
    "nodemailer-smtp-transport": {
      "version": "1.0.2",
      "dependencies": {
        "nodemailer-wellknown": {
          "version": "0.1.5"
        },
        "smtp-connection": {
          "version": "1.2.0"
        }
      }
    },
    "phantomjs": {
      "version": "1.9.16",
      "dependencies": {
        "adm-zip": {
          "version": "0.4.4"
        },
        "fs-extra": {
          "version": "0.16.5",
          "dependencies": {
            "graceful-fs": {
              "version": "3.0.6"
            },
            "jsonfile": {
              "version": "2.0.0"
            },
            "rimraf": {
              "version": "2.3.2",
              "dependencies": {
                "glob": {
                  "version": "4.5.3",
                  "dependencies": {
                    "inflight": {
                      "version": "1.0.4",
                      "dependencies": {
                        "wrappy": {
                          "version": "1.0.1"
                        }
                      }
                    },
                    "inherits": {
                      "version": "2.0.1"
                    },
                    "minimatch": {
                      "version": "2.0.4",
                      "dependencies": {
                        "brace-expansion": {
                          "version": "1.1.0",
                          "dependencies": {
                            "balanced-match": {
                              "version": "0.2.0"
                            },
                            "concat-map": {
                              "version": "0.0.1"
                            }
                          }
                        }
                      }
                    },
                    "once": {
                      "version": "1.3.1",
                      "dependencies": {
                        "wrappy": {
                          "version": "1.0.1"
                        }
                      }
                    }
                  }
                }
              }
            }
          }
        },
        "kew": {
          "version": "0.4.0"
        },
        "npmconf": {
          "version": "2.1.1",
          "dependencies": {
            "config-chain": {
              "version": "1.1.8",
              "dependencies": {
                "proto-list": {
                  "version": "1.2.3"
                }
              }
            },
            "inherits": {
              "version": "2.0.1"
            },
            "ini": {
              "version": "1.3.3"
            },
            "mkdirp": {
              "version": "0.5.0",
              "dependencies": {
                "minimist": {
                  "version": "0.0.8"
                }
              }
            },
            "nopt": {
              "version": "3.0.1",
              "dependencies": {
                "abbrev": {
                  "version": "1.0.5"
                }
              }
            },
            "once": {
              "version": "1.3.1",
              "dependencies": {
                "wrappy": {
                  "version": "1.0.1"
                }
              }
            },
            "osenv": {
              "version": "0.1.0"
            },
            "semver": {
              "version": "4.3.3"
            },
            "uid-number": {
              "version": "0.0.5"
            }
          }
        },
        "progress": {
          "version": "1.1.8"
        },
        "request": {
          "version": "2.42.0",
          "dependencies": {
            "bl": {
              "version": "0.9.4",
              "dependencies": {
                "readable-stream": {
                  "version": "1.0.33",
                  "dependencies": {
                    "core-util-is": {
                      "version": "1.0.1"
                    },
                    "isarray": {
                      "version": "0.0.1"
                    },
                    "string_decoder": {
                      "version": "0.10.31"
                    },
                    "inherits": {
                      "version": "2.0.1"
                    }
                  }
                }
              }
            },
            "caseless": {
              "version": "0.6.0"
            },
            "forever-agent": {
              "version": "0.5.2"
            },
            "qs": {
              "version": "1.2.2"
            },
            "json-stringify-safe": {
              "version": "5.0.0"
            },
            "mime-types": {
              "version": "1.0.2"
            },
            "node-uuid": {
              "version": "1.4.3"
            },
            "tunnel-agent": {
              "version": "0.4.0"
            },
            "tough-cookie": {
              "version": "0.13.0",
              "dependencies": {
                "punycode": {
                  "version": "1.3.2"
                }
              }
            },
            "form-data": {
              "version": "0.1.4",
              "dependencies": {
                "combined-stream": {
                  "version": "0.0.7",
                  "dependencies": {
                    "delayed-stream": {
                      "version": "0.0.5"
                    }
                  }
                },
                "mime": {
                  "version": "1.2.11"
                },
                "async": {
                  "version": "0.9.0"
                }
              }
            },
            "http-signature": {
              "version": "0.10.1",
              "dependencies": {
                "assert-plus": {
                  "version": "0.1.5"
                },
                "asn1": {
                  "version": "0.1.11"
                },
                "ctype": {
                  "version": "0.5.3"
                }
              }
            },
            "oauth-sign": {
              "version": "0.4.0"
            },
            "hawk": {
              "version": "1.1.1",
              "dependencies": {
                "hoek": {
                  "version": "0.9.1"
                },
                "boom": {
                  "version": "0.4.2"
                },
                "cryptiles": {
                  "version": "0.2.2"
                },
                "sntp": {
                  "version": "0.2.4"
                }
              }
            },
            "aws-sign2": {
              "version": "0.5.0"
            },
            "stringstream": {
              "version": "0.0.4"
            }
          }
        },
        "request-progress": {
          "version": "0.3.1",
          "dependencies": {
            "throttleit": {
              "version": "0.0.2"
            }
          }
        },
        "which": {
          "version": "1.0.9"
        }
      }
    },
    "x-ray-phantom": {
      "version": "0.0.1",
      "dependencies": {
        "debug": {
          "version": "2.1.3",
          "dependencies": {
            "ms": {
              "version": "0.7.0"
            }
          }
        },
        "delegates": {
          "version": "0.1.0"
        },
        "nightmare": {
          "version": "1.8.1",
          "dependencies": {
            "clone": {
              "version": "0.1.19"
            },
            "debug": {
              "version": "0.7.4"
            },
            "defaults": {
              "version": "1.0.2"
            },
            "once": {
              "version": "1.3.0"
            },
            "phantom": {
              "version": "0.7.2",
              "dependencies": {
                "dnode": {
                  "version": "1.2.0",
                  "dependencies": {
                    "dnode-protocol": {
                      "version": "0.2.2"
                    },
                    "jsonify": {
                      "version": "0.0.0"
                    },
                    "weak": {
                      "version": "0.3.4",
                      "dependencies": {
                        "bindings": {
                          "version": "1.2.1"
                        },
                        "nan": {
                          "version": "1.5.3"
                        }
                      }
                    }
                  }
                },
                "shoe": {
                  "version": "0.0.15",
                  "dependencies": {
                    "sockjs": {
                      "version": "0.3.7",
                      "dependencies": {
                        "node-uuid": {
                          "version": "1.3.3"
                        },
                        "faye-websocket": {
                          "version": "0.4.4"
                        }
                      }
                    },
                    "sockjs-client": {
                      "version": "0.0.0-unreleasable"
                    }
                  }
                },
                "win-spawn": {
                  "version": "2.0.0"
                },
                "traverse": {
                  "version": "0.6.6"
                }
              }
            },
            "jsesc": {
              "version": "0.5.0"
            }
          }
        }
      }
    }
  }
}
